{
  "boardSize": 10,
  "levels": {
    "easy": {
      "label": "Fácil",
      "turns": -1
    },
    "normal": {
      "label": "Intermedio",
      "turns": 100
    },
    "difficult": {
      "label": "Difícil",
      "turns": 50
    }
  }
}
